{
  "project_info": {
    "project_number": "459996598452",
    "firebase_url": "https://pustak-6b20a.firebaseio.com",
    "project_id": "pustak-6b20a",
    "storage_bucket": "pustak-6b20a.appspot.com"
  },
  "client": [
    {
      "client_info": {
        "mobilesdk_app_id": "1:459996598452:android:a20c9d5770bbffa5ef87e1",
        "android_client_info": {
          "package_name": "com.gtm.archcomponents"
        }
      },
      "oauth_client": [
        {
          "client_id": "459996598452-ggmeia60i8hcl0qgogrovungel7qs9le.apps.googleusercontent.com",
          "client_type": 3
        }
      ],
      "api_key": [
        {
          "current_key": "AIzaSyBCqXlNCAlAtjLF3y1yxq-tD_VWg3OeYj0"
        }
      ],
      "services": {
        "appinvite_service": {
          "other_platform_oauth_client": [
            {
              "client_id": "459996598452-ggmeia60i8hcl0qgogrovungel7qs9le.apps.googleusercontent.com",
              "client_type": 3
            }
          ]
        }
      }
    }
  ],
  "configuration_version": "1"
}